id,first_name,last_name,email,number,city,country,language,latitude,longitude,email_verified_at,password,remember_token,created_at,updated_at
1,Muhammad,Nauman,naumancs@gmail.com,qwe3333,NULL,NULL,NULL,NULL,NULL,NULL,$2y$10$MG5HiDI2VzOVm/DVloH30upK9wuT8DVwM2VR4EHOhFP4QmuTDFnkG,NULL,2018-11-26 15:54:12 +0000,2018-11-26 15:54:12 +0000
2,Muhammad,Nauman,nsssausssmsancss@gmail.coo,qwe3333,NULL,NULL,NULL,NULL,NULL,NULL,$2y$10$AOAHHP3DtOqlwid2zgwQzuMu61oCiWcFN3tQ7zmqKiAXG7OYZJOQ6,NULL,2018-11-26 15:59:22 +0000,2018-11-26 15:59:22 +0000
3,Muhammad,Nauman,nsssausssmsancss@gmail.c,qwe3333,NULL,NULL,NULL,22.00,67.98,NULL,$2y$10$UyD0m8r.2zmxpuASLoDyLO.pCleajlOATFk30A0Yu4Cv2CGEhOE0.,NULL,2018-11-26 16:00:04 +0000,2018-11-26 16:00:04 +0000
4,Muhammad,Nauman,nsssausssmsancss@gmail.coooo,qwe3333,NULL,NULL,NULL,22.00,67.98,NULL,$2y$10$CCnoZQV0aV/19W.iz.GW6.LNtJ3fh1C3AOsfpEADRbc3POehv1JRa,NULL,2018-11-26 16:01:32 +0000,2018-11-26 16:01:32 +0000
5,Muhammad,Nauman,aaa@aaa.aaa,qwe3333,NULL,NULL,NULL,22.00,67.98,NULL,$2y$10$0cRSlkIcwV7erb2X/gC0kuzPX190GxW/6oRgPGcCRaiFIYG7.1qNO,NULL,2018-11-26 16:03:17 +0000,2018-11-26 16:03:17 +0000
6,Muhammad,Nauman,aaa@aaa.aaaa,qwe3333,NULL,NULL,NULL,NULL,NULL,NULL,$2y$10$5jCgvwWy2L7wzha5PCZIZekZRUalLxsWvBlzsr8Hx9aCAl6gwSNDi,NULL,2018-11-26 16:03:40 +0000,2018-11-26 16:03:40 +0000
7,Muhammad,Nauman,aaa@aaa.aaaaaa,qwe3333,NULL,NULL,NULL,NULL,NULL,NULL,$2y$10$RZK5zHCYyT5.7DEOAdro3O5Upt7LZgGMeoWB2VxaHI8u9jesZW4NG,NULL,2018-11-26 16:27:11 +0000,2018-11-26 16:27:11 +0000
8,subhan,iqbal,subhan@vd.com,123456,NULL,NULL,NULL,NULL,NULL,NULL,$2y$10$S1Bs0VVISoDsHZ9Byx.uaujm8c6Gu4fxPILC1GwGbFgkdhakY8Xra,NULL,2018-11-26 16:28:35 +0000,2018-11-26 16:28:35 +0000
9,ssfdff,ssfsdds,qqq@qqq.qqq,76876768678,dfgdgfdgf,dgfdgfdfgq,ssfdsdfsfq,NULL,NULL,NULL,$2y$10$O1CFO2eE5qyIFubCe3MrneYMQJn/XCClUNW7D4f/dqXJDW5dxKhQa,NULL,2018-11-26 17:43:17 +0000,2018-11-26 17:43:17 +0000
10,Farooq,Rasheed,farooq@farooq.com,01212121212,Karachi,Pakistan,English,NULL,NULL,NULL,$2y$10$LHAuzxSw2Q9W4AQfxLvrgeg8mdewZ20a3qDA49291lXxwk3ujrnhG,NULL,2018-11-26 18:04:30 +0000,2018-11-26 18:04:30 +0000
11,Farooq,Rasheed,dev@test.com,03463008534,Karachi,Pakistan,English,NULL,NULL,NULL,$2y$10$jm12GQR53XI7l18KBQV.nu02II7.nFqxQ5DSAcYngw6JMBWHUEL/i,NULL,2018-11-27 06:19:02 +0000,2018-11-27 06:19:02 +0000
12,subhan,ali,subhan@test.com,12345678,NULL,NULL,NULL,NULL,NULL,NULL,$2y$10$g8b0oToieFQXdep87n6/SebxH9FfakeNm.EmmNZC2Y/7bHQYGsXte,NULL,2018-11-27 11:49:24 +0000,2018-11-27 11:49:24 +0000
13,test,test,test@test.com,0312234555,NULL,NULL,NULL,NULL,NULL,NULL,$2y$10$QLIgS4rswt6a6EdXwRjIuO4GEZZETogrgXd5E7Bbr3wWAdlxxYje2,NULL,2018-11-27 15:53:45 +0000,2018-11-27 15:53:45 +0000
14,Super,Admin,admin@gmail.com,NULL,NULL,NULL,NULL,NULL,NULL,NULL,$2y$10$WVVyNWkAbfcGjm/A2Ls3B.ir9OmK/Rnb0UGFibUqVX54rTGLByLJW,NULL,NULL,NULL
